APB_Project/sim/dump.vcd
$date
   Thu Feb  1 17:07:20 2024
$end

$version
  2023.2
  $dumpfile ("dump.vcd") 
$end

$timescale
  1ps
$end

$scope module tb $end
$scope module vif $end
$var reg 1 ! pclk $end
$var reg 1 " rst_n $end
$var reg 32 # paddr [31:0] $end
$var reg 1 $ pwrite $end
$var reg 32 % pwdata [31:0] $end
$var reg 1 & penable $end
$var reg 1 ' psel $end
$var reg 32 ( prdata [31:0] $end
$var reg 1 ) pslverr $end
$var reg 1 * pready $end
$upscope $end
$scope module dut $end
$var wire 1 + pclk $end
$var wire 1 , rst_n $end
$var wire 32 - paddr [31:0] $end
$var wire 1 . pwrite $end
$var wire 1 / psel $end
$var wire 1 0 penable $end
$var wire 32 1 pwdata [31:0] $end
$var reg 1 2 pready $end
$var wire 32 3 prdata [31:0] $end
$var reg 1 4 pslverr $end
$var wire 1 5 write $end
$var wire 1 6 sel $end
$var wire 1 7 ready $end
$var wire 1 8 slverr $end
$var wire 32 9 wdata [31:0] $end
$var wire 32 : rdata [31:0] $end
$var wire 32 ; addr [31:0] $end
$var reg 32 < states $end
$var reg 4 = p_state [3:0] $end
$var reg 4 > n_state [3:0] $end
$scope module slv $end
$var wire 1 + clk $end
$var wire 1 5 write $end
$var wire 1 6 sel $end
$var wire 1 , rst_n $end
$var wire 32 ; addr [31:0] $end
$var wire 32 9 wdata [31:0] $end
$var wire 32 : rdata [31:0] $end
$var reg 1 ? ready $end
$var reg 1 @ err $end
$var reg 32 A cases $end
$var reg 4 B p_state [3:0] $end
$var reg 4 C n_state [3:0] $end
$var reg 8 D cnt [7:0] $end
$scope begin Block23_297 $end
$var reg 32 E i [31:0] $end
$upscope $end
$upscope $end
$upscope $end
$upscope $end
$enddefinitions $end

#0
$dumpvars
0!
0"
b0 #
0$
b0 %
0&
0'
bz (
z)
0*
0+
0,
b0 -
0.
0/
00
b0 1
02
bz 3
z4
05
06
07
08
bz 9
bz :
b0 ;
b0 <
b0 =
b0 >
0?
0@
b0 A
b0 B
b0 C
b0 D
b100000000 E
$end

#10000
1!
1+
b100000000 E

#20000
0!
0+

#30000
1!
1+
b100000000 E

#40000
0!
0+

#50000
1!
1+
b100000000 E

#60000
0!
0+

#70000
1!
1+
b100000000 E

#80000
0!
0+

#90000
1!
1"
b1100 #
1$
b10111010011001010010001110010 %
1'
1+
1,
b1100 -
1.
1/
b10111010011001010010001110010 1
b1 >
b100000000 E

#100000
0!
0+

#110000
1!
1&
1+
10
15
16
b1100 ;
b1 =
b10 >
b10 C

#120000
0!
0+

#130000
1!
0)
1*
1+
12
04
17
b10111010011001010010001110010 9
b10 =
b11 >
1?
b10 B
b0 C
b1 D

#140000
0!
0+

#150000
1!
b10100 #
b110100110001001111011111000110 %
0&
z)
0*
1+
b10100 -
00
b110100110001001111011111000110 1
02
z4
05
06
07
bz 9
b0 ;
b11 =
0?
b0 B
b0 C
b10 D

#160000
0!
0+

#170000
1!
1&
1+
10
15
16
b10100 ;
b10 C
b0 D

#180000
0!
0+

#190000
1!
0)
1*
1+
12
04
17
b110100110001001111011111000110 9
1?
b10 B
b0 C
b1 D

#200000
0!
0+

#210000
1!
b10111 #
b11101111101101011001111010000110 %
0&
z)
0*
1+
b10111 -
00
b11101111101101011001111010000110 1
02
z4
05
06
07
bz 9
b0 ;
0?
b0 B
b0 C
b10 D

#220000
0!
0+

#230000
1!
1&
1+
10
15
16
b10111 ;
b1 C
b0 D

#240000
0!
0+

#250000
1!
1+
b1 B
b1 D

#260000
0!
0+

#270000
1!
1+
b10 D

#280000
0!
0+

#290000
1!
1+
b10 C
b11 D

#300000
0!
0+

#310000
1!
0)
1*
1+
12
04
17
b11101111101101011001111010000110 9
1?
b10 B
b0 C
b100 D

#320000
0!
0+

#330000
1!
b10001 #
b10001000000111101001100010001001 %
0&
z)
0*
1+
b10001 -
00
b10001000000111101001100010001001 1
02
z4
05
06
07
bz 9
b0 ;
0?
b0 B
b0 C
b101 D

#340000
0!
0+

#350000
1!
1&
1+
10
15
16
b10001 ;
b1 C
b0 D

#360000
0!
0+

#370000
1!
1+
b1 B
b10 C
b1 D

#380000
0!
0+

#390000
1!
0)
1*
1+
12
04
17
b10001000000111101001100010001001 9
1?
b10 B
b0 C
b10 D

#400000
0!
0+

#410000
1!
b10111 #
b111101111111111110010111011011 %
0&
z)
0*
1+
b10111 -
00
b111101111111111110010111011011 1
02
z4
05
06
07
bz 9
b0 ;
0?
b0 B
b0 C
b11 D

#420000
0!
0+

#430000
1!
1&
1+
10
15
16
b10111 ;
b1 C
b0 D

#440000
0!
0+

#450000
1!
1+
b1 B
b1 D

#460000
0!
0+

#470000
1!
1+
b10 D

#480000
0!
0+

#490000
1!
1+
b10 C
b11 D

#500000
0!
0+

#510000
1!
0)
1*
1+
12
04
17
b111101111111111110010111011011 9
1?
b10 B
b0 C
b100 D

#520000
0!
0+

#530000
1!
b10000 #
b11010001010110011000011010000100 %
0&
z)
0*
1+
b10000 -
00
b11010001010110011000011010000100 1
02
z4
05
06
07
bz 9
b0 ;
0?
b0 B
b0 C
b101 D

#540000
0!
0+

#550000
1!
1&
1+
10
15
16
b10000 ;
b10 C
b0 D

#560000
0!
0+

#570000
1!
0)
1*
1+
12
04
17
b11010001010110011000011010000100 9
1?
b10 B
b0 C
b1 D

#580000
0!
0+

#590000
1!
b11000 #
b11000010001010110111101001110101 %
0&
z)
0*
1+
b11000 -
00
b11000010001010110111101001110101 1
02
z4
05
06
07
bz 9
b0 ;
0?
b0 B
b0 C
b10 D

#600000
0!
0+

#610000
1!
1&
1+
10
15
16
b11000 ;
b10 C
b0 D

#620000
0!
0+

#630000
1!
0)
1*
1+
12
04
17
b11000010001010110111101001110101 9
1?
b10 B
b0 C
b1 D

#640000
0!
0+

#650000
1!
b10111 #
b11010000011101011100000111011010 %
0&
z)
0*
1+
b10111 -
00
b11010000011101011100000111011010 1
02
z4
05
06
07
bz 9
b0 ;
0?
b0 B
b0 C
b10 D

#660000
0!
0+

#670000
1!
1&
1+
10
15
16
b10111 ;
b1 C
b0 D

#680000
0!
0+

#690000
1!
1+
b1 B
b1 D

#700000
0!
0+

#710000
1!
1+
b10 D

#720000
0!
0+

#730000
1!
1+
b10 C
b11 D

#740000
0!
0+

#750000
1!
0)
1*
1+
12
04
17
b11010000011101011100000111011010 9
1?
b10 B
b0 C
b100 D

#760000
0!
0+

#770000
1!
b10100 #
b11111100001110000101110001101001 %
0&
z)
0*
1+
b10100 -
00
b11111100001110000101110001101001 1
02
z4
05
06
07
bz 9
b0 ;
0?
b0 B
b0 C
b101 D

#780000
0!
0+

#790000
1!
1&
1+
10
15
16
b10100 ;
b10 C
b0 D

#800000
0!
0+

#810000
1!
0)
1*
1+
12
04
17
b11111100001110000101110001101001 9
1?
b10 B
b0 C
b1 D

#820000
0!
0+

#830000
1!
b1101 #
b11000101011100110100101001111011 %
0&
z)
0*
1+
b1101 -
00
b11000101011100110100101001111011 1
02
z4
05
06
07
bz 9
b0 ;
0?
b0 B
b0 C
b10 D

#840000
0!
0+

#850000
1!
1&
1+
10
15
16
b1101 ;
b1 C
b0 D

#860000
0!
0+

#870000
1!
1+
b1 B
b10 C
b1 D

#880000
0!
0+

#890000
1!
0)
1*
1+
12
04
17
b11000101011100110100101001111011 9
1?
b10 B
b0 C
b10 D

#900000
0!
0+

#910000
1!
b11000 #
b11101100001001101000101111100100 %
0&
z)
0*
1+
b11000 -
00
b11101100001001101000101111100100 1
02
z4
05
06
07
bz 9
b0 ;
0?
b0 B
b0 C
b11 D

#920000
0!
0+

#930000
1!
1&
1+
10
15
16
b11000 ;
b10 C
b0 D

#940000
0!
0+

#950000
1!
0)
1*
1+
12
04
17
b11101100001001101000101111100100 9
1?
b10 B
b0 C
b1 D

#960000
0!
0+

#970000
1!
b11111 #
b11110000010100100010000001100111 %
0&
z)
0*
1+
b11111 -
00
b11110000010100100010000001100111 1
02
z4
05
06
07
bz 9
b0 ;
0?
b0 B
b0 C
b10 D

#980000
0!
0+

#990000
1!
1&
1+
10
15
16
b11111 ;
b1 C
b0 D

#1000000
0!
0+

#1010000
1!
1+
b1 B
b1 D

#1020000
0!
0+

#1030000
1!
1+
b10 D

#1040000
0!
0+

#1050000
1!
1+
b10 C
b11 D

#1060000
0!
0+

#1070000
1!
0)
1*
1+
12
04
17
b11110000010100100010000001100111 9
1?
b10 B
b0 C
b100 D

#1080000
0!
0+

#1090000
1!
b0 #
b11010001111101100000100010011111 %
0&
z)
0*
1+
b0 -
00
b11010001111101100000100010011111 1
02
z4
05
06
07
bz 9
b0 ;
0?
b0 B
b0 C
b101 D

#1100000
0!
0+

#1110000
1!
1&
1+
10
15
16
b10 C
b0 D

#1120000
0!
0+

#1130000
1!
0)
1*
1+
12
04
17
b11010001111101100000100010011111 9
1?
b10 B
b0 C
b1 D

#1140000
0!
0+

#1150000
1!
b1000 #
b11010001000100100100001111100100 %
0&
z)
0*
1+
b1000 -
00
b11010001000100100100001111100100 1
02
z4
05
06
07
bz 9
0?
b0 B
b0 C
b10 D

#1160000
0!
0+

#1170000
1!
1&
1+
10
15
16
b1000 ;
b10 C
b0 D

#1180000
0!
0+

#1190000
1!
0)
1*
1+
12
04
17
b11010001000100100100001111100100 9
1?
b10 B
b0 C
b1 D

#1200000
0!
0+

#1210000
1!
b11000 #
b101101101001101101001001111111 %
0&
z)
0*
1+
b11000 -
00
b101101101001101101001001111111 1
02
z4
05
06
07
bz 9
b0 ;
0?
b0 B
b0 C
b10 D

#1220000
0!
0+

#1230000
1!
1&
1+
10
15
16
b11000 ;
b10 C
b0 D

#1240000
0!
0+

#1250000
1!
0)
1*
1+
12
04
17
b101101101001101101001001111111 9
1?
b10 B
b0 C
b1 D

#1260000
0!
0+

#1270000
1!
0&
z)
0*
1+
00
02
z4
05
06
07
bz 9
b0 ;
0?
b0 B
b0 C
b10 D

#1280000
0!
0+

#1290000
1!
1+
b0 D
